{
  "type": "service_account",
  "project_id": "raot-gis-8778b",
  "private_key_id": "aba7e393e012eeed7e4d00403041802392ebca61",
  "private_key": "-----BEGIN PRIVATE KEY-----\nMIIEvgIBADANBgkqhkiG9w0BAQEFAASCBKgwggSkAgEAAoIBAQDhylsLQ8e9+f0V\n8m/5B1l8yF459OWIBjRCpzF7gWNgqlmduWk4iP+rPAtK/TzAsf4BPdbfoUu2VFI5\ndpoWXQKfjm9j7HesHs/P7JuPry8IFXIDSDwOk5eukxxoYK+3MXZkWPZxQ4x9pMjz\nxnyV0ss145Pc5w+4KJFWSZK7XIcAg3GJQ3WhF3s9GNaIgjuhVmUgqZN7NC92ss6P\noVEVNQjDJQtqnduDZ7jtmLtH2/wNoVAqB+9FiIZsrqM8+SnB5oYy7plFn1cYb7Em\nDatpbz2tsHDx78p/cfzbFRT+kxhcdtcYjbCkRWi+hn7hL8hrGB1XDfdUVibXrYBd\nEv6MYTJDAgMBAAECggEAEN4tLwpBQdALODiEZPZHmSre3zWMcD0GanRTHgbshaw0\nRbQ0SCTz9LbnoRKKF1s0vqMACnTiUxy5h9F0cXdBWuopKC3iQtmKbN4gQPu1Z8Uy\nX0xmMDCWhFQ5KxMODYGEdrqurod9V2WYHZ4WcJru03fM9BPO+NMPCIM2kwi2jTMg\nuc4Z83VCdikSv7Wjb/DbryYzcP/IjFUDq2Gy4pV4dosQvIpd3/V6acjJwtqf5yoP\nu+5lSuDiLwGvfQQFGUCe94xOqc3HJeJcSDxfB69wTHNdpGxN1l8zOYOCVGtd7riL\ngG2xYL3IhyG/PyZW6feUBKRmUkjjjU6OTyV+rMDNAQKBgQD15rBK2pni5ft09Slu\n7p10VsABEeK0y4cFVZL19U1hg+pAEeOCEXZoQT2Cb9ZxHkndKe3PR1P4/tGpH26i\naiR9DFoLAQYUGdNoQDFXV10aMnZy58fgOx6FmxtKLVQ3RfXtrqp1pU1bd90ji9hc\ng6t9/qvAe5+jx8NWS3gDUcwnjwKBgQDrEDsgp5PfsN1VZ2exopo3EBac6SZQNIBI\nXpX52t3fgfkopfOHwT6To9Krr6Kt+ohyr+LYZZ70VjxtomCWi1QC3gsHQXA37WGc\nAQQa+DdeQiVi3HWZ0DF//zSSWbto7Svhaj5TVtsfbJujO/OMg/KVgO/c+w4MxwUq\nMFxZpbHQDQKBgQDMq1oIs7JqHKoTSwtVfd4oOxxMx6o+eTjEw9kyRx5FEBslgL4w\nQIChfcvIiXWfaWppXsDFScUm9lFjxvm6zUXZnzJC/nMkv+oqV2O6IsknSOE1+p1u\nkUZyRguMzfXOm7h6QGs4yIF+pGG3eGp5dk6C7DngWAUjuN1pMh+OA8M9GQKBgQCh\n6JMhgevL9xHtIoV9CEf6x10cBUe7lP4LWwMoj0WmDutkwTHF/ygwH3YbhaWi+l8D\nx/yTGyPqnn+O8HphF2TteK3V+I/oJdzGzLhcLz5L8Xm456slIA8IX+uBJsd8lWhV\nIo39b2UM9w0Y2VF/Jt9vdNlCt7ZMvMTk81yY7xVT/QKBgAFxBjK0PXMODOJaA4Hs\n85zJ40y8GfNsXFvBf7UJdF3TkIgu0RZ4ODUj/IKng9bv0OoiGWo58p8ipOJKWgSk\ndnXdI7aBoipHMcUCn9Vi3f9WiTDfc+opXntYazoc1q9OSKZTu/vu3l+JiHTAz6w6\nTDxvLIwnIjL+2FJMyYMdm5ml\n-----END PRIVATE KEY-----\n",
  "client_email": "firebase-adminsdk-x06ci@raot-gis-8778b.iam.gserviceaccount.com",
  "client_id": "104876891814656175890",
  "auth_uri": "https://accounts.google.com/o/oauth2/auth",
  "token_uri": "https://oauth2.googleapis.com/token",
  "auth_provider_x509_cert_url": "https://www.googleapis.com/oauth2/v1/certs",
  "client_x509_cert_url": "https://www.googleapis.com/robot/v1/metadata/x509/firebase-adminsdk-x06ci%40raot-gis-8778b.iam.gserviceaccount.com"
}
